﻿  graph.cpp
  GraphTest.cpp
  Generating Code...
LINK : warning LNK4075: ignoring '/INCREMENTAL' due to '/OPT:ICF' specification
  Graphes.vcxproj -> D:\Projets\Algos&StructuresDeDonnees\5IN0301\exercices\Graph\Release\Graphes.exe
